{ "compressionlevel":-1,
 "height":5,
 "infinite":false,
 "layers":[
        {
         "data":[1, 2, 2, 2, 6, 1, 7, 14, 12, 6, 1, 16, 17, 19, 6, 1, 23, 24, 26, 6, 29, 33, 33, 33, 34],
         "height":5,
         "id":1,
         "name":"Calque de Tuiles 1",
         "opacity":1,
         "type":"tilelayer",
         "visible":true,
         "width":5,
         "x":0,
         "y":0
        }],
 "nextlayerid":2,
 "nextobjectid":1,
 "orientation":"orthogonal",
 "renderorder":"right-down",
 "tiledversion":"1.5.0",
 "tileheight":16,
 "tilesets":[
        {
         "firstgid":1,
         "source":"..\/..\/Tiled\/test.tsx"
        }],
 "tilewidth":16,
 "type":"map",
 "version":1.5,
 "width":5
}